<?xml version="1.0" encoding="UTF-8"?>
<svg width="22px" height="39px" viewBox="0 0 22 39" version="1.1" xmlns="http://www.w3.org/2000/svg" xmlns:xlink="http://www.w3.org/1999/xlink">
    <!-- Generator: sketchtool 59.1 (101010) - https://sketch.com -->
    <title>5A7706A8-6678-45BE-A43B-0DB4CE73103C</title>
    <desc>Created with sketchtool.</desc>
    <g id="Welcome" stroke="none" stroke-width="1" fill="none" fill-rule="evenodd">
        <g id="Desktop-HD---Galerie" transform="translate(-778.000000, -325.000000)">
            <rect id="Backgrouond-1080-px" fill="#000000" x="0" y="0" width="1440" height="1028"></rect>
            <g id="Next_photos" transform="translate(778.000000, 325.000000)" fill="#FFFFFF" fill-rule="nonzero">
                <g id="chevron-right">
                    <polygon id="Path" points="2.44445213 39 22 19.4999311 2.44445213 0 0 2.4375 17.1111649 19.4999311 3.45696161e-05 36.5621898"></polygon>
                </g>
            </g>
        </g>
    </g>
</svg>