<?xml version="1.0" encoding="UTF-8"?>
<svg width="19px" height="19px" viewBox="0 0 19 19" version="1.1" xmlns="http://www.w3.org/2000/svg" xmlns:xlink="http://www.w3.org/1999/xlink">
    <!-- Generator: sketchtool 59.1 (101010) - https://sketch.com -->
    <title>7006DF3D-809B-4BF3-9097-F053BAA819E7</title>
    <desc>Created with sketchtool.</desc>
    <g id="Welcome" stroke="none" stroke-width="1" fill="none" fill-rule="evenodd">
        <g id="Desktop-HD---Detail" transform="translate(-205.000000, -3052.000000)" fill="#000000" fill-rule="nonzero">
            <g id="News" transform="translate(205.000000, 444.000000)">
                <g id="Line_komentare" transform="translate(0.000000, 2587.000000)">
                    <g id="Coments" transform="translate(0.000000, 21.000000)">
                        <g id="comment-text">
                            <path d="M3,2e-05 L16,2e-05 C17.6568,2e-05 19,1.34316 19,3.00002 L19,12 C19,13.6569 17.6568,15 16,15 L11.4142,15 L7.7071,18.7071 C7.52614,18.8881 7.27614,19 7,19 C6.44771,19 6,18.5523 6,18 L6,15 L3,15 C1.34315,15 0,13.6569 0,12 L0,3.00001 C0,1.34316 1.34314,2e-05 3,2e-05 Z M15.99999,1.00002 L2.99999,1.00002 C1.89542,1.00002 0.99999,1.89546 0.99999,3.00002 L0.99999,12 C0.99999,13.1046 1.89543,14 3,14 L6.99999,14 L6.99999,18 L10.99999,14 L15.99999,14 C17.1045,14 17.99999,13.1046 17.99999,12 L17.99999,3.00002 C17.99999,1.89546 17.1045,1.00002 15.99999,1.00002 Z M3,4.00001 L16,4.00001 L16,5.00001 L3,5.00001 L3,4.00001 Z M3,7 L15,7 L15,8 L3,8 L3,7 Z M3,10 L11,10 L11,11 L3,11 L3,10 Z" id="Shape"></path>
                        </g>
                    </g>
                </g>
            </g>
        </g>
    </g>
</svg>