<?xml version="1.0" encoding="UTF-8"?>
<svg width="30px" height="30px" viewBox="0 0 30 30" version="1.1" xmlns="http://www.w3.org/2000/svg" xmlns:xlink="http://www.w3.org/1999/xlink">
    <!-- Generator: Sketch 59.1 (86144) - https://sketch.com -->
    <title>Facebook_icon_black</title>
    <desc>Created with Sketch.</desc>
    <g id="Facebook_icon_black" stroke="none" stroke-width="1" fill="none" fill-rule="evenodd">
        <g id="Social_icons_black" fill="#000000" fill-rule="nonzero">
            <g id="Facebook">
                <path d="M0,15 C0,6.71572835 6.71572835,0 15,0 C23.2842717,0 30,6.71572835 30,15 C30,23.2842717 23.2842717,30 15,30 C6.71572835,30 0,23.2842717 0,15 Z M16.5634719,23.819673 L16.5634719,15.658881 L18.8162074,15.658881 L19.1147435,12.8466269 L16.5634719,12.8466269 L16.5672993,11.4390666 C16.5672993,10.7055875 16.6369896,10.3125726 17.6904775,10.3125726 L19.098796,10.3125726 L19.098796,7.5 L16.8457416,7.5 C14.1394609,7.5 13.1869203,8.8642458 13.1869203,11.1584782 L13.1869203,12.8469454 L11.5,12.8469454 L11.5,15.6591995 L13.1869203,15.6591995 L13.1869203,23.819673 L16.5634719,23.819673 Z" id="Combined-Shape"></path>
            </g>
        </g>
    </g>
</svg>