<?xml version="1.0" encoding="UTF-8"?>
<svg width="100px" height="150px" viewBox="0 0 100 150" version="1.1" xmlns="http://www.w3.org/2000/svg" xmlns:xlink="http://www.w3.org/1999/xlink">
    <!-- Generator: sketchtool 59.1 (101010) - https://sketch.com -->
    <title>F1CEE046-2B7A-49C8-9DC1-41216CDB845F</title>
    <desc>Created with sketchtool.</desc>
    <g id="Welcome" stroke="none" stroke-width="1" fill="none" fill-rule="evenodd">
        <g id="Desktop-HD---Detail" transform="translate(-55.000000, -5001.000000)" fill="#231F20">
            <g id="Paticka" transform="translate(1.000000, 4956.000000)">
                <g id="Logo_paticka">
                    <g transform="translate(54.000000, 45.000000)">
                        <g id="Group-7">
                            <path d="M88.7873498,105.85029 C95.2630318,107.460119 100,112.576768 100,118.641484 C100,125.997149 93.037444,131.958143 84.4508334,131.958143 L78.3987062,131.958143 C77.3607831,131.958143 75.5005647,132.211018 75.5578944,133.618546 C75.602389,134.717482 76.7575384,135.068935 77.5567307,135.068935 L88.4057227,135.068935 C91.4912551,135.143512 94.8043947,135.030361 97.516001,137.594257 C100.035938,139.978998 100.575863,146.985781 97.0624979,149.28823 C95.1055892,150.568892 93.524318,149.88913 93.7510696,149.061071 C93.9761098,148.229583 94.9541363,148.30416 95.8594312,148.30416 C96.7613034,148.30416 98.6454804,147.854128 98.6454804,146.043714 C98.6454804,144.231585 97.1010028,143.767838 95.8979361,143.767838 L78.176233,143.767838 C74.8040524,143.767838 71.0143067,142.012285 71.0143067,137.907136 C71.0143067,132.620761 76.263819,131.774701 77.5644317,131.633263 C77.9965431,131.585259 78.1317384,131.406104 78.137728,131.202946 C78.1522744,130.783774 77.4018551,130.52147 77.0108156,130.337171 C72.1788685,128.080153 68.9008112,123.690413 68.9008112,118.641484 C68.9008112,111.287533 75.8633672,105.376257 84.4508334,105.325682 C87.6159428,105.306823 89.4213985,104.080165 89.6952117,102.443763 C89.9818599,100.749928 89.2656672,99.7409997 87.8752096,98.9197985 C86.4856077,98.0977402 84.0957319,97.4188349 84.023856,95.0263794 C83.9528357,92.6339239 85.5948592,91.5247023 87.4482322,91.3815493 C89.3024609,91.2401107 91.0856693,92.0253093 92.3332307,93.918015 C93.5825033,95.811578 93.5465654,98.8126481 92.3332307,101.062808 C91.611904,102.403474 89.9664579,103.830718 88.6589999,104.609059 C88.0737242,104.957084 87.805045,105.605987 88.7873498,105.85029 M51.2826437,105.325682 C59.8701099,105.325682 66.8318102,111.287533 66.8318102,118.641484 C66.8318102,125.997149 59.8701099,131.958143 51.2826437,131.958143 C42.6951775,131.958143 35.7334771,125.997149 35.7334771,118.641484 C35.7334771,111.287533 42.6951775,105.325682 51.2826437,105.325682 M51.2826437,131.196089 C50.8282849,131.196089 50.2489989,130.79406 50.1103809,129.511684 C49.8134648,126.750631 49.7458671,122.769777 49.7458671,118.641484 C49.7458671,114.513191 49.8134648,110.534051 50.1103809,107.772998 C50.2489989,106.490621 50.8282849,106.086021 51.2826437,106.086021 C51.7370024,106.086021 52.3154328,106.490621 52.4531951,107.772998 C52.7509669,110.534051 52.8185645,114.513191 52.8185645,118.641484 C52.8185645,122.769777 52.7509669,126.750631 52.4531951,129.511684 C52.3154328,130.79406 51.7370024,131.196089 51.2826437,131.196089 M17.9510217,107.710422 L17.9510217,88.2038953 C17.9493103,87.1521063 17.5591265,86.2597573 16.3509258,86.2734726 C15.1324571,86.2871878 14.6293254,87.213825 14.7285827,88.5262039 C14.7756443,89.1451049 14.9022829,89.8265818 14.9039942,90.3383324 C14.9099839,91.7312884 13.3338467,91.7278596 13.2183318,90.3769066 C13.0942602,88.9068023 14.2998939,86.1080323 17.1210254,84.6559292 C21.0066057,82.656073 25.1480303,82.5986404 27.7252969,83.7850103 C30.3042749,84.970523 31.8076805,87.125533 31.8076805,91.1141018 L31.8076805,128.093012 C31.8076805,128.093012 31.7435055,129.335957 32.675326,129.493682 C33.1681898,129.575117 33.6413732,129.386532 34.0324126,129.071081 C35.1593251,128.156445 34.9916145,127.366103 34.9813465,126.353745 C34.9762125,125.904571 35.208098,125.47854 35.7411781,125.476826 C36.2194955,125.476826 36.4205771,125.849709 36.446247,126.33403 C36.5189787,127.676411 35.226067,128.912498 34.2275045,129.571688 C30.8133963,131.826991 28.1745217,132.446749 25.5347914,132.369601 C22.8959168,132.292452 21.0322757,131.124084 20.0234453,129.803133 C19.5203135,129.143086 19.1797584,128.663052 18.9863778,128.334743 C18.5594003,127.619835 18.1777732,127.904427 17.5505699,128.843922 C16.6615327,130.173445 14.5916761,132.241877 11.564329,132.397031 C8.53783756,132.549613 0,131.508968 0,118.758063 C0,107.046947 9.63137899,105.856291 10.9499606,105.856291 C13.1550125,105.856291 15.8135674,106.716066 17.1004894,108.565054 C17.1004894,108.565054 18.00664,109.200242 17.9510217,107.710422 M18.0280316,110.504049 C18.5636787,114.60834 18.8032652,122.334317 17.8021357,127.320671 C17.5171989,128.735057 16.3586268,128.523328 16.001814,127.111513 C15.0657152,123.408393 15.1820858,114.090589 16.1233186,110.403756 C16.4553171,109.102521 17.7781771,108.594199 18.0280316,110.504049 M84.4508334,131.196089 C83.9964747,131.196089 83.416333,130.79406 83.2794264,129.511684 C82.9807988,126.750631 82.9132012,122.769777 82.9132012,118.641484 C82.9132012,114.513191 82.9807988,110.534051 83.2794264,107.772998 C83.416333,106.490621 83.9964747,106.086021 84.4508334,106.086021 C84.9043365,106.086021 85.4836225,106.490621 85.6205291,107.772998 C85.918301,110.534051 85.9858986,114.513191 85.9858986,118.641484 C85.9858986,122.769777 85.918301,126.750631 85.6205291,129.511684 C85.4836225,130.79406 84.9043365,131.196089 84.4508334,131.196089" id="Fill-1"></path>
                            <path d="M51.807319,91.922183 C51.9295384,91.4209775 51.6969821,91.1161904 51.2819455,91.1339697 C50.6691512,91.1610618 50.4000988,91.6207824 50.269392,92.1736324 C50.1963999,92.481806 49.7024299,92.4961987 49.7915482,92.1550065 C49.8373805,91.9763674 49.9375324,91.8045013 50.075878,91.647028 C50.7268659,90.9011462 51.7198982,90.6082119 52.695107,90.6395372 C53.996234,90.6852553 54.9213667,91.3549403 54.5479187,92.9025816 L52.975193,99.4436517 C52.8538224,99.9448572 53.1313622,100.290283 53.5438526,100.27081 C54.279715,100.240331 54.6192133,99.5444008 54.7507689,98.9907042 C54.8458284,98.5894012 55.3932693,98.5817815 55.2829324,99.0084835 C54.9952076,100.127729 53.5234827,100.772862 52.0874051,100.723758 C50.7854293,100.682273 49.9205575,99.7645248 50.2940056,98.2168836 L51.807319,91.922183 Z M54.4672878,86 C55.4153367,86 55.9984249,86.7670476 55.7709611,87.7127343 C55.5434973,88.6592676 54.5903559,89.4263152 53.6414583,89.4263152 C52.6934095,89.4263152 52.1086237,88.6592676 52.3360876,87.7127343 C52.5644001,86.7670476 53.5183902,86 54.4672878,86 L54.4672878,86 Z M62.5015139,87.4477388 L61.7189704,90.6979548 C62.874962,90.6979548 63.3808143,90.6141383 63.9774825,90.5396348 C64.5020073,90.4727509 64.366208,91.1695282 63.828952,91.1128039 C63.2552,91.0518465 62.7561376,90.9781896 61.6510708,90.9781896 L59.6140813,99.4436517 C59.4935594,99.9448572 59.7744942,100.27081 60.1835896,100.27081 C61.0280915,100.27081 61.6247597,99.3369762 61.8377948,97.8562188 C61.903997,97.394805 62.190873,97.103564 62.5023626,97.0857847 C62.8130035,97.0688521 62.9810552,97.3338476 62.868172,97.7444636 C62.2019067,100.156515 60.4696169,100.781329 58.8154116,100.723758 C57.5125871,100.682273 56.5568995,99.7763777 56.9294989,98.2304297 L58.6753686,90.9781896 L56.95581,90.9781896 L57.0118272,90.7436728 C60.5553402,90.7436728 61.7376428,89.4229286 62.184083,87.4477388 L62.5015139,87.4477388 Z M72.660999,102.346749 L75.1486724,92.0085394 C75.270043,91.5073339 75.5034481,91.0154413 76.0194854,91.0188279 C76.4472532,91.0213677 76.6119099,91.4260573 76.4905392,91.970441 C76.4141521,92.3116332 76.9412232,92.3057068 76.9879042,91.9662078 C77.1279472,90.9561772 76.0271241,90.6344574 74.9721333,90.6395372 C73.6565776,90.6496968 72.3019796,91.4650023 71.926834,93.0287296 L71.4167379,95.147 C71.0186762,96.80301 70.0188539,98.8154516 68.9256695,99.7281197 C68.3196651,100.231865 67.4115073,100.077778 67.6525511,99.0762139 L69.1395534,92.9025816 C69.5104552,91.3549403 68.5878687,90.6852553 67.2841955,90.6395372 C66.3098355,90.6082119 65.3159544,90.9011462 64.6658152,91.647028 C64.5274697,91.8045013 64.4281664,91.9763674 64.3806367,92.1550065 C64.2923671,92.4961987 64.7863371,92.481806 64.860178,92.1736324 C64.990036,91.6207824 65.2599372,91.1610618 65.8727315,91.1339697 C66.2860706,91.1161904 66.5194757,91.4209775 66.3972563,91.922183 L64.8839428,98.2168836 C64.5104948,99.7645248 65.3753666,100.682273 66.6781911,100.723758 C67.5744665,100.755083 68.2942028,100.531572 68.884081,100.124343 C69.9781141,99.3725347 70.6104296,98.0517906 70.8294059,97.5861436 L69.3373111,103.786022 C68.8263663,105.910218 67.6270887,106.650174 66.5364506,106.711131 C65.5765193,106.761929 64.699765,106.462222 64.6437478,105.418326 C64.8703629,105.474203 66.5288119,105.380227 66.9031087,103.82412 C67.1967747,102.604971 66.2954068,102.126625 65.6113178,102.126625 C64.9263801,102.126625 63.782271,102.731119 63.5081262,103.873224 C63.0268874,105.873813 64.5512346,107.015918 66.4643072,106.999832 C69.3135462,106.97274 71.9047666,105.491136 72.660999,102.346749 L72.660999,102.346749 Z M40.3747155,95.7100096 C40.8466181,93.901606 42.4210412,90.786851 45.1039261,90.7064211 C47.359892,90.6395372 47.6230031,92.0203922 47.6425243,92.167706 C47.4150604,92.112675 45.8185699,92.3700507 45.4773742,93.7906974 C45.1837082,95.0089992 46.0850761,95.4873456 46.7700138,95.4873456 C47.4541027,95.4873456 48.5812369,94.9522749 48.8562305,93.8093232 C49.1312241,92.6663715 48.3945129,90.3787749 44.7618816,90.3787749 C41.0749307,90.3787749 37.9456055,92.4310082 37.183432,95.6033341 C36.4195609,98.77566 38.0287826,101.045477 42.2487458,101.045477 C44.7262343,101.045477 46.5960209,99.7408192 47.2113615,98.8188381 C47.5882046,98.2541354 47.5075737,97.9857534 47.2750174,97.8985504 C47.0237887,97.8028811 46.6953242,97.9358021 46.3057499,98.5496095 C45.9789829,99.0660544 44.8603361,100.741537 42.7197997,100.741537 C40.2355212,100.741537 39.9019642,97.5158732 40.3747155,95.7100096 L40.3747155,95.7100096 Z" id="Fill-3"></path>
                            <path d="M89.2037389,31.0706842 C88.103604,35.7925115 84.9262913,40.5442671 82.0165328,42.1142191 C78.5391834,43.9902947 75.5995067,44.0048313 73.3718831,42.4733585 C71.467376,41.1616448 72.1289956,38.3381254 73.4231714,36.9810917 C74.4797112,35.8720352 74.5284352,33.9044647 73.3257236,32.1318554 C72.1443821,30.3925949 69.3799406,28.9688639 66.5616463,29.3006403 C63.2458551,29.6922732 60.0411887,32.6791154 60.8011109,38.0217408 C61.9038102,45.7526428 75.8371426,47.808288 81.9660993,44.7444873 C83.1876166,44.1348055 83.9167658,44.039035 84.2279151,44.3417382 C84.6262545,44.7316609 84.329637,45.781716 83.4876534,47.2482016 C80.1265575,53.1149994 68.0575562,65.652383 56.8878105,69.3344165 C55.2081174,69.8885172 53.0753772,70.1818143 52.737729,67.7276954 C52.3547761,64.9486409 51.9513078,44.211764 51.6649479,37.3641737 C51.6187884,36.2833353 51.317042,35.742061 51.013586,35.742061 C50.71013,35.742061 50.4058191,36.2833353 50.3613692,37.3641737 C50.0750093,44.211764 49.6715411,64.9486409 49.2894429,67.7276954 C48.9509399,70.1818143 46.8164901,69.8885172 45.1376518,69.3344165 C33.9687609,65.652383 21.9006144,53.1149994 18.5378089,47.2482016 C17.6966802,45.781716 17.4009174,44.7316609 17.798402,44.3417382 C18.1086965,44.039035 18.8395553,44.1348055 20.0602178,44.7444873 C26.1891745,47.808288 40.1225069,45.7526428 41.2252062,38.0217408 C41.9868381,32.6791154 38.7813168,29.6922732 35.4655256,29.3006403 C32.6472313,28.9688639 29.8827898,30.3925949 28.7014484,32.1318554 C27.4987368,33.9044647 27.5457511,35.8720352 28.6031457,36.9810917 C29.8973215,38.3381254 30.5597959,41.1616448 28.6535792,42.4733585 C26.4285201,44.0048313 23.4871338,43.9902947 20.0106391,42.1142191 C17.1000258,40.5442671 13.9227131,35.7925115 12.8225782,31.0706842 C11.9814494,27.4579134 12.4840752,24.2094124 14.864709,21.3439935 C21.0056329,13.955129 37.6136523,9.62664472 51.013586,9.62664472 C64.41181,9.62664472 81.0206842,13.955129 87.1616082,21.3439935 C89.542242,24.2094124 90.0448677,27.4579134 89.2037389,31.0706842 M98.65618,23.1687634 L98.4843641,22.2572336 L98.1407322,21.394444 C91.8903931,5.66243039 66.329994,0 51.013586,0 C37.8512883,0 17.1231056,4.18140813 7.58603869,15.342946 C3.31628436,20.3384033 2.3264194,24.9105893 3.39920051,31.4169971 C4.09244791,35.6137969 5.72512674,39.8935408 8.07327792,43.472963 C7.7681123,46.0981006 8.477601,48.8378208 9.80254979,51.3389698 C10.9522634,53.5074874 12.4832204,55.5870753 14.0312734,57.4879485 C17.8949951,62.229443 22.62378,66.7272358 27.4961724,70.4152549 C34.1328836,75.4397854 42.484335,80 51.013586,80 C59.5436918,80 67.8934335,75.4397854 74.5301448,70.4152549 C79.4016823,66.7272358 84.1321769,62.229443 87.9950437,57.4879485 C89.5439516,55.5870753 91.0740537,53.5074874 92.2229125,51.3389698 C93.5487161,48.8378208 94.2582048,46.0989557 93.953894,43.472963 C97.9099347,37.4445525 99.8358118,29.4306145 98.65618,23.1687634" id="Fill-5"></path>
                        </g>
                    </g>
                </g>
            </g>
        </g>
    </g>
</svg>