<?xml version="1.0" encoding="utf-8"?>
<!-- Generator: Adobe Illustrator 16.0.0, SVG Export Plug-In . SVG Version: 6.00 Build 0)  -->
<!DOCTYPE svg PUBLIC "-//W3C//DTD SVG 1.1//EN" "http://www.w3.org/Graphics/SVG/1.1/DTD/svg11.dtd">
<svg version="1.1" id="Vrstva_1" xmlns="http://www.w3.org/2000/svg" xmlns:xlink="http://www.w3.org/1999/xlink" x="0px" y="0px"
	 width="55px" height="25px" viewBox="0 0 55 25" enable-background="new 0 0 55 25" xml:space="preserve">
<path fill="#6ECDEA" d="M51.094,0H3.906C1.749,0,0,1.75,0,3.906v17.188C0,23.251,1.749,25,3.906,25h47.188
	C53.251,25,55,23.251,55,21.094V3.906C55,1.75,53.251,0,51.094,0z M33.688,19H21.312c-0.683,0-1.237-0.713-1.237-1.396l0.01-7.495
	c0,0,6.208,3.264,7.414,3.264c1.323,0,7.416-3.324,7.416-3.324l0.01,7.566C34.925,18.297,34.371,19,33.688,19z M34.915,8.174
	c0,0-6.188,3.458-7.454,3.458C26.256,11.632,20,8.107,20,8.107V7.557C20,6.874,20.629,6,21.312,6h12.375
	c0.684,0,1.237,0.714,1.237,1.396L34.915,8.174z"/>
</svg>
