<?xml version="1.0" encoding="UTF-8"?>
<svg width="17px" height="17px" viewBox="0 0 17 17" version="1.1" xmlns="http://www.w3.org/2000/svg" xmlns:xlink="http://www.w3.org/1999/xlink">
    <!-- Generator: sketchtool 59.1 (101010) - https://sketch.com -->
    <title>A5440EB3-C21E-4A5B-96D3-99BE524BC0D6</title>
    <desc>Created with sketchtool.</desc>
    <g id="Welcome" stroke="none" stroke-width="1" fill="none" fill-rule="evenodd">
        <g id="Deskop_PODPORA" transform="translate(-1132.000000, -2750.000000)" fill="#000000" fill-rule="nonzero" stroke="#000000" stroke-width="2">
            <g id="Podporte-nas" transform="translate(181.000000, 2732.000000)">
                <g id="Menu_close_icon" transform="translate(952.000000, 19.000000)">
                    <g id="Group" transform="translate(0.750000, 0.750000)">
                        <path d="M12.435048,0 L12.96,0.54682536 L7.274,6.469 L13.5,12.9531824 L12.9750554,13.5 L6.75,7.015 L0.524944621,13.5 L0,12.9531824 L6.225,6.468 L0.54,0.54682536 L1.06495205,0 L6.75,5.922 L12.435048,0 Z" id="Combined-Shape"></path>
                    </g>
                </g>
            </g>
        </g>
    </g>
</svg>